[
  {
    "directory": "/home/timur/Документы/VCode/Lab6/.build",
    "command": "c++ -Isrc/Lab6/a8ad51e@@Lab6@exe -Isrc/Lab6 -I../src/Lab6 -Isrc -I../src -fdiagnostics-color=always -pipe -D_FILE_OFFSET_BITS=64 -Wall -Winvalid-pch -Wnon-virtual-dtor -g -MD -MQ 'src/Lab6/a8ad51e@@Lab6@exe/main.cpp.o' -MF 'src/Lab6/a8ad51e@@Lab6@exe/main.cpp.o.d' -o 'src/Lab6/a8ad51e@@Lab6@exe/main.cpp.o' -c ../src/Lab6/main.cpp",
    "file": "../src/Lab6/main.cpp"
  }
]
