Log of Meson test suite run on 2019-11-01T11:55:44.031787

Inherited environment: GJS_DEBUG_TOPICS='JS ERROR;JS LOG' LESSOPEN='| /usr/bin/lesspipe %s' USER='timur' TEXTDOMAIN='im-config' XDG_SEAT='seat0' SSH_AGENT_PID='1060' XDG_SESSION_TYPE='x11' SHLVL='2' CHROME_DESKTOP='code-url-handler.desktop' QT4_IM_MODULE='xim' HOME='/home/timur' OLDPWD='/home/timur/Документы/VCode/Lab3/.build/src' DESKTOP_SESSION='ubuntu' TERM_PROGRAM_VERSION='1.39.2' GIO_LAUNCHED_DESKTOP_FILE='/usr/share/applications/code.desktop' GNOME_SHELL_SESSION_MODE='ubuntu' GTK_MODULES='gail:atk-bridge' DBUS_SESSION_BUS_ADDRESS='unix:path=/run/user/1000/bus' COLORTERM='truecolor' GIO_LAUNCHED_DESKTOP_FILE_PID='7764' IM_CONFIG_PHASE='2' LOGNAME='timur' GTK_IM_MODULE='ibus' _='/usr/bin/ninja' USERNAME='timur' XDG_SESSION_ID='1' TERM='xterm-256color' GNOME_DESKTOP_SESSION_ID='this-is-deprecated' WINDOWPATH='1' PATH='/home/timur/.local/bin:/usr/local/sbin:/usr/local/bin:/usr/sbin:/usr/bin:/sbin:/bin:/usr/games:/usr/local/games:/snap/bin' SESSION_MANAGER='local/timur-HP-Pavilion-Gaming-Laptop-15-cx0xxx:@/tmp/.ICE-unix/965,unix/timur-HP-Pavilion-Gaming-Laptop-15-cx0xxx:/tmp/.ICE-unix/965' XDG_MENU_PREFIX='gnome-' XDG_RUNTIME_DIR='/run/user/1000' DISPLAY=':0' LANG='ru_RU.UTF-8' XDG_CURRENT_DESKTOP='Unity' LS_COLORS='rs=0:di=01;34:ln=01;36:mh=00:pi=40;33:so=01;35:do=01;35:bd=40;33;01:cd=40;33;01:or=40;31;01:mi=00:su=37;41:sg=30;43:ca=30;41:tw=30;42:ow=34;42:st=37;44:ex=01;32:*.tar=01;31:*.tgz=01;31:*.arc=01;31:*.arj=01;31:*.taz=01;31:*.lha=01;31:*.lz4=01;31:*.lzh=01;31:*.lzma=01;31:*.tlz=01;31:*.txz=01;31:*.tzo=01;31:*.t7z=01;31:*.zip=01;31:*.z=01;31:*.Z=01;31:*.dz=01;31:*.gz=01;31:*.lrz=01;31:*.lz=01;31:*.lzo=01;31:*.xz=01;31:*.zst=01;31:*.tzst=01;31:*.bz2=01;31:*.bz=01;31:*.tbz=01;31:*.tbz2=01;31:*.tz=01;31:*.deb=01;31:*.rpm=01;31:*.jar=01;31:*.war=01;31:*.ear=01;31:*.sar=01;31:*.rar=01;31:*.alz=01;31:*.ace=01;31:*.zoo=01;31:*.cpio=01;31:*.7z=01;31:*.rz=01;31:*.cab=01;31:*.wim=01;31:*.swm=01;31:*.dwm=01;31:*.esd=01;31:*.jpg=01;35:*.jpeg=01;35:*.mjpg=01;35:*.mjpeg=01;35:*.gif=01;35:*.bmp=01;35:*.pbm=01;35:*.pgm=01;35:*.ppm=01;35:*.tga=01;35:*.xbm=01;35:*.xpm=01;35:*.tif=01;35:*.tiff=01;35:*.png=01;35:*.svg=01;35:*.svgz=01;35:*.mng=01;35:*.pcx=01;35:*.mov=01;35:*.mpg=01;35:*.mpeg=01;35:*.m2v=01;35:*.mkv=01;35:*.webm=01;35:*.ogm=01;35:*.mp4=01;35:*.m4v=01;35:*.mp4v=01;35:*.vob=01;35:*.qt=01;35:*.nuv=01;35:*.wmv=01;35:*.asf=01;35:*.rm=01;35:*.rmvb=01;35:*.flc=01;35:*.avi=01;35:*.fli=01;35:*.flv=01;35:*.gl=01;35:*.dl=01;35:*.xcf=01;35:*.xwd=01;35:*.yuv=01;35:*.cgm=01;35:*.emf=01;35:*.ogv=01;35:*.ogx=01;35:*.aac=00;36:*.au=00;36:*.flac=00;36:*.m4a=00;36:*.mid=00;36:*.midi=00;36:*.mka=00;36:*.mp3=00;36:*.mpc=00;36:*.ogg=00;36:*.ra=00;36:*.wav=00;36:*.oga=00;36:*.opus=00;36:*.spx=00;36:*.xspf=00;36:' TERM_PROGRAM='vscode' XDG_SESSION_DESKTOP='ubuntu' XMODIFIERS='@im=ibus' XAUTHORITY='/run/user/1000/gdm/Xauthority' SSH_AUTH_SOCK='/run/user/1000/keyring/ssh' SHELL='/bin/bash' NO_AT_BRIDGE='1' QT_ACCESSIBILITY='1' GDMSESSION='ubuntu' LESSCLOSE='/usr/bin/lesspipe %s %s' TEXTDOMAINDIR='/usr/share/locale/' GJS_DEBUG_OUTPUT='stderr' GPG_AGENT_INFO='/run/user/1000/gnupg/S.gpg-agent:0:1' XDG_VTNR='1' QT_IM_MODULE='xim' PWD='/home/timur/Документы/VCode/Lab3/.build' CLUTTER_IM_MODULE='xim' XDG_DATA_DIRS='/usr/share/ubuntu:/usr/local/share/:/usr/share/:/var/lib/snapd/desktop' XDG_CONFIG_DIRS='/etc/xdg/xdg-ubuntu:/etc/xdg' 

1/1 functions                               OK       0.00 s 

--- command ---
/home/timur/Документы/VCode/Lab3/.build/test/functions_test
--- stdout ---
Running main() from gtest_main.cc
[==========] Running 3 tests from 3 test cases.
[----------] Global test environment set-up.
[----------] 1 test from Message
[ RUN      ] Message.Compare
[       OK ] Message.Compare (1 ms)
[----------] 1 test from Message (1 ms total)

[----------] 1 test from Cat
[ RUN      ] Cat.Compare
[       OK ] Cat.Compare (0 ms)
[----------] 1 test from Cat (0 ms total)

[----------] 1 test from Tie
[ RUN      ] Tie.Compare
Tied!
[       OK ] Tie.Compare (0 ms)
[----------] 1 test from Tie (0 ms total)

[----------] Global test environment tear-down
[==========] 3 tests from 3 test cases ran. (1 ms total)
[  PASSED  ] 3 tests.
-------


Ok:                    1
Expected Fail:         0
Fail:                  0
Unexpected Pass:       0
Skipped:               0
Timeout:               0
