[
  {
    "directory": "/home/timur/Документы/VCode/Lab3/.build",
    "command": "c++ -Isrc/Lab3/0364dd2@@Lab3@exe -Isrc/Lab3 -I../src/Lab3 -Isrc -I../src -fdiagnostics-color=always -pipe -D_FILE_OFFSET_BITS=64 -Wall -Winvalid-pch -Wnon-virtual-dtor -g -MD -MQ 'src/Lab3/0364dd2@@Lab3@exe/main.cpp.o' -MF 'src/Lab3/0364dd2@@Lab3@exe/main.cpp.o.d' -o 'src/Lab3/0364dd2@@Lab3@exe/main.cpp.o' -c ../src/Lab3/main.cpp",
    "file": "../src/Lab3/main.cpp"
  },
  {
    "directory": "/home/timur/Документы/VCode/Lab3/.build",
    "command": "c++ -Itest/9f86d08@@functions_test@exe -Itest -I../test -Isrc -I../src -fdiagnostics-color=always -pipe -D_FILE_OFFSET_BITS=64 -Wall -Winvalid-pch -Wnon-virtual-dtor -g -pthread -MD -MQ 'test/9f86d08@@functions_test@exe/functions_test.cpp.o' -MF 'test/9f86d08@@functions_test@exe/functions_test.cpp.o.d' -o 'test/9f86d08@@functions_test@exe/functions_test.cpp.o' -c ../test/functions_test.cpp",
    "file": "../test/functions_test.cpp"
  }
]
